ГЛАВА 3 Агрегирование наблюдений | Анализ временных рядов с помощью R
…
Воспользуемся данными cryptos (подразд. 1.5.1) и в качестве примера рассчитаем среднемесячную стоимость каждой криптовалюты, а также общее число наблюдений, учтенных в каждом месяце исследованного периода:

require(dplyr)

monthly <- cryptos %>% 
  group_by_key() %>% 
  index_by(year_month = ~ yearmonth(.)) %>% 
  summarise(
    avg_y = mean(y),
    n = n()
  )

monthly

## # A tsibble: 528 x 4 [1M]
## # Key:       coin [22]
##    coin  year_month avg_y     n
##    <chr>      <mth> <dbl> <int>
##  1 augur   2018 Jan  84.1    31
##  2 augur   2018 Feb  51.1    28
##  3 augur   2018 Mar  35.9    31
##  4 augur   2018 Apr  32.5    30
##  5 augur   2018 May  45.8    31
##  6 augur   2018 Jun  34.5    30
##  7 augur   2018 Jul  31.9    31
##  8 augur   2018 Aug  21.7    31
##  9 augur   2018 Sep  14.7    30
## 10 augur   2018 Oct  13.1    31
## # ... with 518 more rows
…
