ГЛАВА 5 Извлечение признаков с помощью пакета feasts | Анализ временных рядов с помощью R
…
features — список функций, которые непосредственно выполняют вычисления соответствующих признаков;

... — дополнительные аргументы, которые необходимо подать на функции, перечисленные в списке features. Важно отметить, что такие аргументы будут переданы на ту или иную функцию только, если они входят в состав формальных аргументов этой функции, а не являются ее дополнительными аргументами (...). Например, в случае с базовой функцией var(), указание аргумента na.rm = TRUE сработает, поскольку это формальный аргумент var(). В то же время в случае с базовой функцией mean() это не сработает, поскольку na.rm является ее дополнительным аргументом. Чтобы убедиться в том, что необходимые аргументы будут поданы на нужную функцию, ее следует добавить в список features в виде анонимной функции, как показано в следующем примере:

require(feasts)

# Неправильный способ подать дополнительный аргумент на функцию,
# которая вычисляет некоторый признак (здесь - среднее значение)
# при наличии пропущенных наблюдений (NA): 
## features(dat_ts, y, features = list(mean), na.rm = TRUE)

# Правильный способ (с использованием анонимной функции):
features(cryptos, y, features = list(~ mean(., na.rm = TRUE)))

## # A tibble: 22 x 2
##    coin              V1
##    <chr>          <dbl>
##  1 augur       23.2    
##  2 bitcoin   7492.     
##  3 cardano      0.136  
##  4 chainlink    0.938  
##  5 dash       223.     
##  6 decred      41.8    
##  7 dogecoin     0.00350
##  8 eos          6.08   
##  9 ethereum   340.     
## 10 iota         0.776  
## # ... with 12 more rows

Заметьте, что в последней команде нам не нужно было сначала сгруппировать данные по переменной coin — расчет средних значений для отдельных уровней этой переменной был выполнен автоматически. Такой результат стал возможным благодаря тому, что таблица dat_ts является объектом класса tsibble, в котором переменная coin служит “ключом”. Функции пакета feasts “знают” как работать с подобными объектами.

Другой момент, на который стоит обратить внимание: результатом выполнения последней команды стала таблица, в которой рассчитанная новая переменная имеет мало о чем говорящее название V1. Чтобы изменить такое поведение feasts рекомендуется сначала сохранить определение анонимной функции в виде полноценной пользовательской функции. Эта функция должна возвращать вектор с одним или несколькими поименованными элементами — их имена в итоге станут именами соответствующих переменных в итоговой таблице. В приведенном ниже примере пользовательская функция my_func(x) возвращает вектор со значениями арифметического среднего и дисперсии x:

my_func <- function(x) {
  m <- mean(x, na.rm = TRUE)
  v <- var(x, na.rm = TRUE)
  return(c(avg = m, var = v))
}

features(cryptos, y, features = list(~ my_func(.)))

## # A tibble: 22 x 3
##    coin             avg     var
##    <chr>          <dbl>   <dbl>
##  1 augur       23.2     3.28e+2
##  2 bitcoin   7492.      6.72e+6
##  3 cardano      0.136   2.61e-2
##  4 chainlink    0.938   7.71e-1
##  5 dash       223.      4.66e+4
##  6 decred      41.8     7.46e+2
##  7 dogecoin     0.00350 3.46e-6
##  8 eos          6.08    1.23e+1
##  9 ethereum   340.      7.00e+4
## 10 iota         0.776   5.82e-1
## # ... with 12 more rows

5.2 Встроенные функции для расчета признаков

Помимо подаваемых на features() пользовательских функций можно также воспользоваться целым рядом готовых функций, входящих в состав пакета feasts. Например, для расчета коэффициента Xёрста и спектральной энтропии ряда служат функции coef_hurst() и feat_spectral():

require(dplyr)
require(tidyr)

cryptos %>% features(., y, list(coef_hurst, feat_spectral))

## # A tibble: 22 x 3
##    coin      coef_hurst spectral_entropy
##    <chr>          <dbl>            <dbl>
##  1 augur           1.00            0.423
##  2 bitcoin         1.00            0.444
##  3 cardano         1.00            0.422
##  4 chainlink       1.00            0.437
##  5 dash            1.00            0.398
##  6 decred          1.00            0.422
##  7 dogecoin        1.00            0.535
##  8 eos             1.00            0.494
##  9 ethereum        1.00            0.407
## 10 iota            1.00            0.417
## # ... with 12 more rows
…
На момент написания этой книги пакет feasts позволял рассчитать 48 признаков, характеризующих различные свойства временных рядов. Для одновременного расчета всех этих признаков можно применить вспомогательную функцию feature_set() из пакета fabletools (гл. 4) следующим образом:

(all_crypto_features <- cryptos %>% 
   features(., y, feature_set(pkgs = "feasts")))

## # A tibble: 22 x 49
##    coin  trend_strength seasonal_streng~ seasonal_peak_w~ seasonal_trough~
##    <chr>          <dbl>            <dbl>            <dbl>            <dbl>
##  1 augur          0.991            0.146                6                2
##  2 bitc~          0.991            0.220                6                2
##  3 card~          0.990            0.249                6                2
##  4 chai~          0.996            0.226                6                2
##  5 dash           0.996            0.312                6                1
##  6 decr~          0.993            0.232                6                4
##  7 doge~          0.983            0.303                6                2
##  8 eos            0.988            0.274                6                2
##  9 ethe~          0.995            0.159                6                4
## 10 iota           0.995            0.228                6                2
## # ... with 12 more rows, and 44 more variables: spikiness <dbl>,
## #   linearity <dbl>, curvature <dbl>, stl_e_acf1 <dbl>, stl_e_acf10 <dbl>,
## #   acf1 <dbl>, acf10 <dbl>, diff1_acf1 <dbl>, diff1_acf10 <dbl>,
## #   diff2_acf1 <dbl>, diff2_acf10 <dbl>, season_acf1 <dbl>, pacf5 <dbl>,
## #   diff1_pacf5 <dbl>, diff2_pacf5 <dbl>, season_pacf <dbl>,
## #   zero_run_mean <dbl>, nonzero_squared_cv <dbl>, zero_start_prop <dbl>,
## #   zero_end_prop <dbl>, lambda_guerrero <dbl>, kpss_stat <dbl>,
## #   kpss_pvalue <dbl>, pp_stat <dbl>, pp_pvalue <dbl>, ndiffs <int>,
## #   nsdiffs <int>, bp_stat <dbl>, bp_pvalue <dbl>, lb_stat <dbl>,
…
