ГЛАВА 7 Пакет bsts | Анализ временных рядов с помощью R
…
predictors <- bind_rows(tibble(prop_id = 13252, 
                               dt = dt_13252, 
                               y_fitted = fitted_M13252),
                        tibble(prop_id = 83045, 
                               dt = dt_83045, 
                               y_fitted = fitted_M83045)) %>% 
  inner_join(., h, by = c("prop_id", "dt")) %>% 
  mutate(y_imputed = ifelse(is.na(y), y_fitted, y),
         prop_id = paste0("y_", prop_id)) %>% 
  dplyr::select(-y, -y_fitted) %>% 
  pivot_wider(names_from = prop_id, values_from = y_imputed)

predictors

## # A tibble: 228 x 3
##    dt         y_13252 y_83045
##    <date>       <dbl>   <dbl>
##  1 2012-11-01    5.21    5.37
##  2 2012-11-02    5.28    5.65
##  3 2012-11-03    5.16    5.40
##  4 2012-11-04    5.26    5.39
##  5 2012-11-05    5.39    5.39
##  6 2012-11-06    5.28    5.44
##  7 2012-11-07    5.47    5.41
##  8 2012-11-08    5.32    5.34
##  9 2012-11-09    5.47    5.29
## 10 2012-11-10    5.58    5.26
## # ... with 218 more rows
…
