ГЛАВА 2 Обработка пропущенных наблюдений | Анализ временных рядов с помощью R
…
has_gaps(shares_na_dropped)

## # A tibble: 3 x 2
##   share .gaps
##   <chr> <lgl>
## 1 amzn  TRUE 
## 2 fb    TRUE 
## 3 goog  TRUE

Теперь, как видим, функция has_gaps() успешно обнаружила наличие пропущенных наблюдений для некоторых дат. С помощью другой функции — scan_gaps() — можно выяснить, какие именно наблюдения отсутствуют в каждом из рядов:

scan_gaps(shares_na_dropped)

## # A tsibble: 1,149 x 2 [1D]
## # Key:       share [3]
##    share ds        
##    <chr> <date>    
##  1 amzn  2016-01-09
##  2 amzn  2016-01-10
##  3 amzn  2016-01-16
##  4 amzn  2016-01-17
##  5 amzn  2016-01-18
##  6 amzn  2016-01-23
##  7 amzn  2016-01-24
##  8 amzn  2016-01-30
##  9 amzn  2016-01-31
## 10 amzn  2016-02-06
## # ... with 1,139 more rows

Строго говоря, полученный с помощью scan_gaps() результат не совсем верен. Например, для акций компании Amazon эта функция “решила”, что первое пропущенное наблюдение приходится на 9 января 2016 г., тогда как в действительности временной ряд amzn начинается с 1 января 2016 г. и в нем пропущены несколько первых наблюдений (см. подразд. 1.5.3). Впрочем, такой результат вполне логичен, поскольку в ходе создания таблицы shares_na_dropped пропущенные наблюдения в начале ряда были удалены и функция scan_gaps() просто ничего об этом “не знала”.

Функция count_gaps() дает более развернутый отчет по отсутствующим наблюдениям. В частности, она определяет длину каждого “пробела” в каждом временном ряду:

(gaps <- count_gaps(shares_na_dropped))

## # A tibble: 552 x 4
##    share .from      .to           .n
##    <chr> <date>     <date>     <int>
##  1 amzn  2016-01-09 2016-01-10     2
##  2 amzn  2016-01-16 2016-01-18     3
##  3 amzn  2016-01-23 2016-01-24     2
##  4 amzn  2016-01-30 2016-01-31     2
##  5 amzn  2016-02-06 2016-02-07     2
##  6 amzn  2016-02-13 2016-02-15     3
##  7 amzn  2016-02-20 2016-02-21     2
##  8 amzn  2016-02-27 2016-02-28     2
##  9 amzn  2016-03-05 2016-03-06     2
## 10 amzn  2016-03-12 2016-03-13     2
## # ... with 542 more rows
…
РИСУНОК 2.1: Визуализация пропущенных наблюдений во временных рядах

Как отмечено выше, хорошей практикой является представление пропущенных наблюдений в явном виде с помощью NA. Для этого достаточно воспользоваться функцией fill_gaps() из пакета tsibble:

shares_na_dropped %>% fill_gaps()

## # A tsibble: 3,711 x 3 [1D]
## # Key:       share [3]
##    ds         share price
##    <date>     <chr> <dbl>
##  1 2016-01-04 amzn   637.
##  2 2016-01-05 amzn   634.
##  3 2016-01-06 amzn   633.
##  4 2016-01-07 amzn   608.
##  5 2016-01-08 amzn   607.
##  6 2016-01-09 amzn    NA 
##  7 2016-01-10 amzn    NA 
##  8 2016-01-11 amzn   618.
##  9 2016-01-12 amzn   618.
## 10 2016-01-13 amzn   582.
## # ... with 3,701 more rows
…
