ГЛАВА 1 Введение | Анализ временных рядов с помощью R
…
РИСУНОК 1.2: Динамика стоимости 22 криптовалют. Источник: CoinMarketCap

Заметьте, что стоимость одной из криптовалют (tether) на протяжении всего исследованного периода была настолько низковолатильной, что ее временной ряд на рис. 1.2 выглядит почти как сплошная горизонтальная линия.

Воспользуемся функцией as_tibble() для преобразования таблицы cryptos в объект класса tsibble:

require(tsibble)

(cryptos <- as_tsibble(cryptos, key = coin, index = ds))

## # A tsibble: 15,510 x 3 [1D]
## # Key:       coin [22]
##        y ds         coin 
##    <dbl> <date>     <chr>
##  1  74.5 2018-01-01 augur
##  2  79.5 2018-01-02 augur
##  3  77.5 2018-01-03 augur
##  4  73.7 2018-01-04 augur
##  5  72.8 2018-01-05 augur
##  6  77.5 2018-01-06 augur
##  7  80.2 2018-01-07 augur
##  8  98.1 2018-01-08 augur
##  9  91.9 2018-01-09 augur
## 10 103.  2018-01-10 augur
## # ... with 15,500 more rows
…
